{
  "kind": "collectionType",
  "collectionName": "posts",
  "info": {
    "singularName": "post",
    "pluralName": "posts",
    "displayName": "Post",
    "description": ""
  },
  "options": {
    "draftAndPublish": true
  },
  "pluginOptions": {},
  "attributes": {
    "title": {
      "type": "string",
      "required": true
    },
    "description": {
      "type": "text"
    },
    "caption": {
      "type": "string"
    },
    "subcaption": {
      "type": "string"
    },
    "preview": {
      "type": "text"
    },
    "handle": {
      "type": "uid",
      "targetField": "title"
    },
    "author": {
      "type": "string"
    },
    "img": {
      "type": "media",
      "multiple": false,
      "required": false,
      "allowedTypes": [
        "images",
        "files",
        "videos",
        "audios"
      ]
    },
    "images": {
      "type": "media",
      "multiple": true,
      "required": false,
      "allowedTypes": [
        "images",
        "files",
        "videos",
        "audios"
      ]
    },
    "content": {
      "type": "richtext"
    },
    "section": {
      "type": "dynamiczone",
      "components": [
        "content.content",
        "content.gallery",
        "content.benefits",
        "content.slider"
      ]
    }
  }
}
